  1   1   1   1   1   1   0   0   0   0   0   0   0   0   0   0   0   0   0   0   0   0   0   0
  1   2   4   8  16  32   0   0   0   0   0   0   0   0   0   0   0   0   0   0   0   0   0   0
  0   0   0   0   0   0   1   1   1   1   1   1   0   0   0   0   0   0   0   0   0   0   0   0
  0   0   0   0   0   0   1   2   4   8  16  32   0   0   0   0   0   0   0   0   0   0   0   0
  0   0   0   0   0   0   0   0   0   0   0   0   1   1   1   1   1   1   0   0   0   0   0   0
  0   0   0   0   0   0   0   0   0   0   0   0   1   2   4   8  16  32   0   0   0   0   0   0
  0   0   0   0   0   0   0   0   0   0   0   0   0   0   0   0   0   0   1   1   1   1   1   1
  0   0   0   0   0   0   0   0   0   0   0   0   0   0   0   0   0   0   1   2   4   8  16  32
  1 142  71 173 216 108  45 152  76  38  19 135  37 156  78  39 157 192  80  40  20  10   5 140
  1   4  16  64  29 116 205  19  76  45 180 234 143   6  24  96 157  78  37 148 106 181 238 159
