6e c0 0a 91 d0 f2 69 ae
ba b4 48 3b 0b 5c ea 66
83 81 c8 15 52 b9 29 7d
3a 7d 5a d4 63 29 8b 1e
f2 77 9e 08 c7 97 0a b2
9f ff 4e 63 2d a9 2b 19
bb 20 46 24 07 0d 8c 84
8b 44 8e e1 52 46 05 3a
1b 63 2e 59 e0 7a 66 62
04 dc 5d 8b 18 4f fa ea
06 5d c5 3f 32 b6 8d 9e
29 86 7e 28 9f c8 98 a8
4a 2e cb 69 6a ae 27 d7
9a 3b e3 19 92 01 ad 7e
8d 86 08 30 d4 74 e4 c5
e5 75 d9 f5 40 37 00 67
24 55 5c f1 99 dc ab 40
9c b3 a5 44 f5 30 c5 4b
cd 8f 6e a4 ed b9 4e 2d
1b bd 9a a7 3f ee 76 34
23 44 a9 cb 78 49 d9 11
36 b4 b8 c2 f9 14 71 ac
7d 83 b2 ac 66 c6 6a 5b
be 41 57 a6 35 cc fa ff
